{
  "header": {
    "description": "Karaoke Mugen Tag File",
    "version": 1
  },
  "tag": {
    "i18n": {
      "eng": "1 Crush"
    },
    "name": "1 Crush",
    "repository": "justin.omez.tech",
    "tid": "df13dbca-44d1-4c4d-bc8f-d282932a5e65",
    "types": [
      "17",
      "singergroups"
    ]
  }
}