{
  "header": {
    "description": "Karaoke Mugen Tag File",
    "version": 1
  },
  "tag": {
    "i18n": {
      "eng": "English"
    },
    "name": "English",
    "repository": "worldkaraoke.dandjs.me",
    "tid": "6583bdea-8748-4f07-b7ef-21cea22ea82c",
    "types": [
      "5",
      "langs"
    ]
  }
}