{
  "header": {
    "description": "Karaoke Mugen Tag File",
    "version": 1
  },
  "tag": {
    "i18n": {
      "eng": "Justin"
    },
    "name": "Justin",
    "repository": "justin.omez.tech",
    "tid": "6dbef913-9d44-4601-aa59-bb6793ac9b08",
    "types": [
      "6",
      "authors"
    ]
  }
}