{
  "header": {
    "description": "Karaoke Mugen Tag File",
    "version": 1
  },
  "tag": {
    "i18n": {
      "eng": "Justin"
    },
    "name": "Justin",
    "repository": "justin.omez.tech",
    "tid": "0b5d2064-ec10-406f-a5ad-b157bf54ffac",
    "types": [
      "6",
      "authors"
    ]
  }
}