{
  "header": {
    "description": "Karaoke Mugen Tag File",
    "version": 1
  },
  "tag": {
    "i18n": {
      "eng": "Justin"
    },
    "name": "Justin",
    "repository": "justin.omez.tech",
    "tid": "4e1f3f9e-3848-429f-9061-bb1dd2154fa6",
    "types": [
      "6",
      "authors"
    ]
  }
}